2011-08-29 15:39:26,614 - Log4JLogChute initialized using file 'velocity.log'
2011-08-29 15:39:26,614 - Starting Apache Velocity v1.5 (compiled: 2007-02-22 08:52:29)
2011-08-29 15:39:26,614 - Default Properties File: org/apache/velocity/runtime/defaults/velocity.properties
2011-08-29 15:39:26,614 - Trying to use logger class org.apache.velocity.runtime.log.AvalonLogChute
2011-08-29 15:39:26,616 - Couldn't find class org.apache.velocity.runtime.log.AvalonLogChute or necessary supporting classes in classpath.
java.lang.NoClassDefFoundError: org/apache/log/format/Formatter
	at java.lang.Class.forName0(Native Method)
	at java.lang.Class.forName(Class.java:247)
	at org.apache.velocity.util.ClassUtils.getClass(ClassUtils.java:63)
	at org.apache.velocity.util.ClassUtils.getNewInstance(ClassUtils.java:95)
	at org.apache.velocity.runtime.log.LogManager.createLogChute(LogManager.java:147)
	at org.apache.velocity.runtime.log.LogManager.updateLog(LogManager.java:208)
	at org.apache.velocity.runtime.RuntimeInstance.initializeLog(RuntimeInstance.java:728)
	at org.apache.velocity.runtime.RuntimeInstance.init(RuntimeInstance.java:240)
	at org.apache.velocity.app.VelocityEngine.init(VelocityEngine.java:116)
	at com.tddinaction.j2ee.web.view.velocity.VelocityTestCase.renderTemplate(VelocityTestCase.java:58)
	at com.tddinaction.j2ee.web.view.velocity.VelocityTestCase.render(VelocityTestCase.java:52)
	at com.tddinaction.j2ee.web.view.velocity.TestLoginTemplate.formFieldsArePresent(TestLoginTemplate.java:14)
	at sun.reflect.NativeMethodAccessorImpl.invoke0(Native Method)
	at sun.reflect.NativeMethodAccessorImpl.invoke(NativeMethodAccessorImpl.java:39)
	at sun.reflect.DelegatingMethodAccessorImpl.invoke(DelegatingMethodAccessorImpl.java:25)
	at java.lang.reflect.Method.invoke(Method.java:597)
	at org.junit.internal.runners.TestMethodRunner.executeMethodBody(TestMethodRunner.java:99)
	at org.junit.internal.runners.TestMethodRunner.runUnprotected(TestMethodRunner.java:81)
	at org.junit.internal.runners.BeforeAndAfterRunner.runProtected(BeforeAndAfterRunner.java:34)
	at org.junit.internal.runners.TestMethodRunner.runMethod(TestMethodRunner.java:75)
	at org.junit.internal.runners.TestMethodRunner.run(TestMethodRunner.java:45)
	at org.junit.internal.runners.TestClassMethodsRunner.invokeTestMethod(TestClassMethodsRunner.java:66)
	at org.junit.internal.runners.TestClassMethodsRunner.run(TestClassMethodsRunner.java:35)
	at org.junit.internal.runners.TestClassRunner$1.runUnprotected(TestClassRunner.java:42)
	at org.junit.internal.runners.BeforeAndAfterRunner.runProtected(BeforeAndAfterRunner.java:34)
	at org.junit.internal.runners.TestClassRunner.run(TestClassRunner.java:52)
	at org.apache.maven.surefire.junit4.JUnit4TestSet.execute(JUnit4TestSet.java:62)
	at org.apache.maven.surefire.suite.AbstractDirectoryTestSuite.executeTestSet(AbstractDirectoryTestSuite.java:138)
	at org.apache.maven.surefire.suite.AbstractDirectoryTestSuite.execute(AbstractDirectoryTestSuite.java:125)
	at org.apache.maven.surefire.Surefire.run(Surefire.java:132)
	at sun.reflect.NativeMethodAccessorImpl.invoke0(Native Method)
	at sun.reflect.NativeMethodAccessorImpl.invoke(NativeMethodAccessorImpl.java:39)
	at sun.reflect.DelegatingMethodAccessorImpl.invoke(DelegatingMethodAccessorImpl.java:25)
	at java.lang.reflect.Method.invoke(Method.java:597)
	at org.apache.maven.surefire.booter.SurefireBooter.runSuitesInProcess(SurefireBooter.java:290)
	at org.apache.maven.surefire.booter.SurefireBooter.main(SurefireBooter.java:818)
Caused by: java.lang.ClassNotFoundException: org.apache.log.format.Formatter
	at java.net.URLClassLoader$1.run(URLClassLoader.java:202)
	at java.security.AccessController.doPrivileged(Native Method)
	at java.net.URLClassLoader.findClass(URLClassLoader.java:190)
	at java.lang.ClassLoader.loadClass(ClassLoader.java:306)
	at sun.misc.Launcher$AppClassLoader.loadClass(Launcher.java:301)
	at java.lang.ClassLoader.loadClass(ClassLoader.java:247)
	... 36 more
2011-08-29 15:39:26,618 - Trying to use logger class org.apache.velocity.runtime.log.Log4JLogChute
2011-08-29 15:39:26,618 - Using logger class org.apache.velocity.runtime.log.Log4JLogChute
2011-08-29 15:39:26,621 - Default ResourceManager initializing. (class org.apache.velocity.runtime.resource.ResourceManagerImpl)
2011-08-29 15:39:26,625 - ResourceLoader instantiated: org.apache.velocity.runtime.resource.loader.FileResourceLoader
2011-08-29 15:39:26,626 - Do unicode file recognition:  false
2011-08-29 15:39:26,626 - FileResourceLoader : adding path '.'
2011-08-29 15:39:26,633 - ResourceCache: initialized (class org.apache.velocity.runtime.resource.ResourceCacheImpl)
2011-08-29 15:39:26,635 - Loaded System Directive: org.apache.velocity.runtime.directive.Literal
2011-08-29 15:39:26,636 - Loaded System Directive: org.apache.velocity.runtime.directive.Macro
2011-08-29 15:39:26,638 - Loaded System Directive: org.apache.velocity.runtime.directive.Parse
2011-08-29 15:39:26,639 - Loaded System Directive: org.apache.velocity.runtime.directive.Include
2011-08-29 15:39:26,640 - Loaded System Directive: org.apache.velocity.runtime.directive.Foreach
2011-08-29 15:39:26,663 - Created '20' parsers.
2011-08-29 15:39:26,669 - Velocimacro : "velocimacro.library" is not set.  Trying default library: VM_global_library.vm
2011-08-29 15:39:26,669 - Velocimacro : Default library not found.
2011-08-29 15:39:26,669 - Velocimacro : allowInline = true : VMs can be defined inline in templates
2011-08-29 15:39:26,669 - Velocimacro : allowInlineToOverride = false : VMs defined inline may NOT replace previous VM definitions
2011-08-29 15:39:26,669 - Velocimacro : allowInlineLocal = false : VMs defined inline will be global in scope if allowed.
2011-08-29 15:39:26,669 - Velocimacro : autoload off : VM system will not automatically reload global library macros
2011-08-29 15:39:26,712 - Log4JLogChute initialized using file 'velocity.log'
2011-08-29 15:39:26,712 - Log4JLogChute initialized using file 'velocity.log'
2011-08-29 15:39:26,712 - Starting Apache Velocity v1.5 (compiled: 2007-02-22 08:52:29)
2011-08-29 15:39:26,712 - Starting Apache Velocity v1.5 (compiled: 2007-02-22 08:52:29)
2011-08-29 15:39:26,712 - Default Properties File: org/apache/velocity/runtime/defaults/velocity.properties
2011-08-29 15:39:26,712 - Default Properties File: org/apache/velocity/runtime/defaults/velocity.properties
2011-08-29 15:39:26,712 - Trying to use logger class org.apache.velocity.runtime.log.AvalonLogChute
2011-08-29 15:39:26,712 - Trying to use logger class org.apache.velocity.runtime.log.AvalonLogChute
2011-08-29 15:39:26,712 - Couldn't find class org.apache.velocity.runtime.log.AvalonLogChute or necessary supporting classes in classpath.
java.lang.NoClassDefFoundError: org/apache/log/format/Formatter
	at java.lang.Class.forName0(Native Method)
	at java.lang.Class.forName(Class.java:247)
	at org.apache.velocity.util.ClassUtils.getClass(ClassUtils.java:63)
	at org.apache.velocity.util.ClassUtils.getNewInstance(ClassUtils.java:95)
	at org.apache.velocity.runtime.log.LogManager.createLogChute(LogManager.java:147)
	at org.apache.velocity.runtime.log.LogManager.updateLog(LogManager.java:208)
	at org.apache.velocity.runtime.RuntimeInstance.initializeLog(RuntimeInstance.java:728)
	at org.apache.velocity.runtime.RuntimeInstance.init(RuntimeInstance.java:240)
	at org.apache.velocity.app.VelocityEngine.init(VelocityEngine.java:116)
	at com.tddinaction.j2ee.web.view.velocity.VelocityTestCase.renderTemplate(VelocityTestCase.java:58)
	at com.tddinaction.j2ee.web.view.velocity.VelocityTestCase.render(VelocityTestCase.java:52)
	at com.tddinaction.j2ee.web.view.velocity.TestLoginTemplate.previousUsernameIsRetained(TestLoginTemplate.java:24)
	at sun.reflect.NativeMethodAccessorImpl.invoke0(Native Method)
	at sun.reflect.NativeMethodAccessorImpl.invoke(NativeMethodAccessorImpl.java:39)
	at sun.reflect.DelegatingMethodAccessorImpl.invoke(DelegatingMethodAccessorImpl.java:25)
	at java.lang.reflect.Method.invoke(Method.java:597)
	at org.junit.internal.runners.TestMethodRunner.executeMethodBody(TestMethodRunner.java:99)
	at org.junit.internal.runners.TestMethodRunner.runUnprotected(TestMethodRunner.java:81)
	at org.junit.internal.runners.BeforeAndAfterRunner.runProtected(BeforeAndAfterRunner.java:34)
	at org.junit.internal.runners.TestMethodRunner.runMethod(TestMethodRunner.java:75)
	at org.junit.internal.runners.TestMethodRunner.run(TestMethodRunner.java:45)
	at org.junit.internal.runners.TestClassMethodsRunner.invokeTestMethod(TestClassMethodsRunner.java:66)
	at org.junit.internal.runners.TestClassMethodsRunner.run(TestClassMethodsRunner.java:35)
	at org.junit.internal.runners.TestClassRunner$1.runUnprotected(TestClassRunner.java:42)
	at org.junit.internal.runners.BeforeAndAfterRunner.runProtected(BeforeAndAfterRunner.java:34)
	at org.junit.internal.runners.TestClassRunner.run(TestClassRunner.java:52)
	at org.apache.maven.surefire.junit4.JUnit4TestSet.execute(JUnit4TestSet.java:62)
	at org.apache.maven.surefire.suite.AbstractDirectoryTestSuite.executeTestSet(AbstractDirectoryTestSuite.java:138)
	at org.apache.maven.surefire.suite.AbstractDirectoryTestSuite.execute(AbstractDirectoryTestSuite.java:125)
	at org.apache.maven.surefire.Surefire.run(Surefire.java:132)
	at sun.reflect.NativeMethodAccessorImpl.invoke0(Native Method)
	at sun.reflect.NativeMethodAccessorImpl.invoke(NativeMethodAccessorImpl.java:39)
	at sun.reflect.DelegatingMethodAccessorImpl.invoke(DelegatingMethodAccessorImpl.java:25)
	at java.lang.reflect.Method.invoke(Method.java:597)
	at org.apache.maven.surefire.booter.SurefireBooter.runSuitesInProcess(SurefireBooter.java:290)
	at org.apache.maven.surefire.booter.SurefireBooter.main(SurefireBooter.java:818)
Caused by: java.lang.ClassNotFoundException: org.apache.log.format.Formatter
	at java.net.URLClassLoader$1.run(URLClassLoader.java:202)
	at java.security.AccessController.doPrivileged(Native Method)
	at java.net.URLClassLoader.findClass(URLClassLoader.java:190)
	at java.lang.ClassLoader.loadClass(ClassLoader.java:306)
	at sun.misc.Launcher$AppClassLoader.loadClass(Launcher.java:301)
	at java.lang.ClassLoader.loadClass(ClassLoader.java:247)
	... 36 more
2011-08-29 15:39:26,712 - Couldn't find class org.apache.velocity.runtime.log.AvalonLogChute or necessary supporting classes in classpath.
java.lang.NoClassDefFoundError: org/apache/log/format/Formatter
	at java.lang.Class.forName0(Native Method)
	at java.lang.Class.forName(Class.java:247)
	at org.apache.velocity.util.ClassUtils.getClass(ClassUtils.java:63)
	at org.apache.velocity.util.ClassUtils.getNewInstance(ClassUtils.java:95)
	at org.apache.velocity.runtime.log.LogManager.createLogChute(LogManager.java:147)
	at org.apache.velocity.runtime.log.LogManager.updateLog(LogManager.java:208)
	at org.apache.velocity.runtime.RuntimeInstance.initializeLog(RuntimeInstance.java:728)
	at org.apache.velocity.runtime.RuntimeInstance.init(RuntimeInstance.java:240)
	at org.apache.velocity.app.VelocityEngine.init(VelocityEngine.java:116)
	at com.tddinaction.j2ee.web.view.velocity.VelocityTestCase.renderTemplate(VelocityTestCase.java:58)
	at com.tddinaction.j2ee.web.view.velocity.VelocityTestCase.render(VelocityTestCase.java:52)
	at com.tddinaction.j2ee.web.view.velocity.TestLoginTemplate.previousUsernameIsRetained(TestLoginTemplate.java:24)
	at sun.reflect.NativeMethodAccessorImpl.invoke0(Native Method)
	at sun.reflect.NativeMethodAccessorImpl.invoke(NativeMethodAccessorImpl.java:39)
	at sun.reflect.DelegatingMethodAccessorImpl.invoke(DelegatingMethodAccessorImpl.java:25)
	at java.lang.reflect.Method.invoke(Method.java:597)
	at org.junit.internal.runners.TestMethodRunner.executeMethodBody(TestMethodRunner.java:99)
	at org.junit.internal.runners.TestMethodRunner.runUnprotected(TestMethodRunner.java:81)
	at org.junit.internal.runners.BeforeAndAfterRunner.runProtected(BeforeAndAfterRunner.java:34)
	at org.junit.internal.runners.TestMethodRunner.runMethod(TestMethodRunner.java:75)
	at org.junit.internal.runners.TestMethodRunner.run(TestMethodRunner.java:45)
	at org.junit.internal.runners.TestClassMethodsRunner.invokeTestMethod(TestClassMethodsRunner.java:66)
	at org.junit.internal.runners.TestClassMethodsRunner.run(TestClassMethodsRunner.java:35)
	at org.junit.internal.runners.TestClassRunner$1.runUnprotected(TestClassRunner.java:42)
	at org.junit.internal.runners.BeforeAndAfterRunner.runProtected(BeforeAndAfterRunner.java:34)
	at org.junit.internal.runners.TestClassRunner.run(TestClassRunner.java:52)
	at org.apache.maven.surefire.junit4.JUnit4TestSet.execute(JUnit4TestSet.java:62)
	at org.apache.maven.surefire.suite.AbstractDirectoryTestSuite.executeTestSet(AbstractDirectoryTestSuite.java:138)
	at org.apache.maven.surefire.suite.AbstractDirectoryTestSuite.execute(AbstractDirectoryTestSuite.java:125)
	at org.apache.maven.surefire.Surefire.run(Surefire.java:132)
	at sun.reflect.NativeMethodAccessorImpl.invoke0(Native Method)
	at sun.reflect.NativeMethodAccessorImpl.invoke(NativeMethodAccessorImpl.java:39)
	at sun.reflect.DelegatingMethodAccessorImpl.invoke(DelegatingMethodAccessorImpl.java:25)
	at java.lang.reflect.Method.invoke(Method.java:597)
	at org.apache.maven.surefire.booter.SurefireBooter.runSuitesInProcess(SurefireBooter.java:290)
	at org.apache.maven.surefire.booter.SurefireBooter.main(SurefireBooter.java:818)
Caused by: java.lang.ClassNotFoundException: org.apache.log.format.Formatter
	at java.net.URLClassLoader$1.run(URLClassLoader.java:202)
	at java.security.AccessController.doPrivileged(Native Method)
	at java.net.URLClassLoader.findClass(URLClassLoader.java:190)
	at java.lang.ClassLoader.loadClass(ClassLoader.java:306)
	at sun.misc.Launcher$AppClassLoader.loadClass(Launcher.java:301)
	at java.lang.ClassLoader.loadClass(ClassLoader.java:247)
	... 36 more
2011-08-29 15:39:26,713 - Trying to use logger class org.apache.velocity.runtime.log.Log4JLogChute
2011-08-29 15:39:26,713 - Trying to use logger class org.apache.velocity.runtime.log.Log4JLogChute
2011-08-29 15:39:26,713 - Using logger class org.apache.velocity.runtime.log.Log4JLogChute
2011-08-29 15:39:26,713 - Using logger class org.apache.velocity.runtime.log.Log4JLogChute
2011-08-29 15:39:26,713 - Default ResourceManager initializing. (class org.apache.velocity.runtime.resource.ResourceManagerImpl)
2011-08-29 15:39:26,713 - Default ResourceManager initializing. (class org.apache.velocity.runtime.resource.ResourceManagerImpl)
2011-08-29 15:39:26,713 - ResourceLoader instantiated: org.apache.velocity.runtime.resource.loader.FileResourceLoader
2011-08-29 15:39:26,713 - ResourceLoader instantiated: org.apache.velocity.runtime.resource.loader.FileResourceLoader
2011-08-29 15:39:26,713 - Do unicode file recognition:  false
2011-08-29 15:39:26,713 - Do unicode file recognition:  false
2011-08-29 15:39:26,713 - FileResourceLoader : adding path '.'
2011-08-29 15:39:26,713 - FileResourceLoader : adding path '.'
2011-08-29 15:39:26,714 - ResourceCache: initialized (class org.apache.velocity.runtime.resource.ResourceCacheImpl)
2011-08-29 15:39:26,714 - ResourceCache: initialized (class org.apache.velocity.runtime.resource.ResourceCacheImpl)
2011-08-29 15:39:26,714 - Loaded System Directive: org.apache.velocity.runtime.directive.Literal
2011-08-29 15:39:26,714 - Loaded System Directive: org.apache.velocity.runtime.directive.Literal
2011-08-29 15:39:26,714 - Loaded System Directive: org.apache.velocity.runtime.directive.Macro
2011-08-29 15:39:26,714 - Loaded System Directive: org.apache.velocity.runtime.directive.Macro
2011-08-29 15:39:26,714 - Loaded System Directive: org.apache.velocity.runtime.directive.Parse
2011-08-29 15:39:26,714 - Loaded System Directive: org.apache.velocity.runtime.directive.Parse
2011-08-29 15:39:26,714 - Loaded System Directive: org.apache.velocity.runtime.directive.Include
2011-08-29 15:39:26,714 - Loaded System Directive: org.apache.velocity.runtime.directive.Include
2011-08-29 15:39:26,714 - Loaded System Directive: org.apache.velocity.runtime.directive.Foreach
2011-08-29 15:39:26,714 - Loaded System Directive: org.apache.velocity.runtime.directive.Foreach
2011-08-29 15:39:26,716 - Created '20' parsers.
2011-08-29 15:39:26,716 - Created '20' parsers.
2011-08-29 15:39:26,716 - Velocimacro : "velocimacro.library" is not set.  Trying default library: VM_global_library.vm
2011-08-29 15:39:26,716 - Velocimacro : "velocimacro.library" is not set.  Trying default library: VM_global_library.vm
2011-08-29 15:39:26,717 - Velocimacro : Default library not found.
2011-08-29 15:39:26,717 - Velocimacro : Default library not found.
2011-08-29 15:39:26,717 - Velocimacro : allowInline = true : VMs can be defined inline in templates
2011-08-29 15:39:26,717 - Velocimacro : allowInline = true : VMs can be defined inline in templates
2011-08-29 15:39:26,717 - Velocimacro : allowInlineToOverride = false : VMs defined inline may NOT replace previous VM definitions
2011-08-29 15:39:26,717 - Velocimacro : allowInlineToOverride = false : VMs defined inline may NOT replace previous VM definitions
2011-08-29 15:39:26,717 - Velocimacro : allowInlineLocal = false : VMs defined inline will be global in scope if allowed.
2011-08-29 15:39:26,717 - Velocimacro : allowInlineLocal = false : VMs defined inline will be global in scope if allowed.
2011-08-29 15:39:26,717 - Velocimacro : autoload off : VM system will not automatically reload global library macros
2011-08-29 15:39:26,717 - Velocimacro : autoload off : VM system will not automatically reload global library macros
2011-08-29 15:39:26,726 - Log4JLogChute initialized using file 'velocity.log'
2011-08-29 15:39:26,726 - Log4JLogChute initialized using file 'velocity.log'
2011-08-29 15:39:26,726 - Log4JLogChute initialized using file 'velocity.log'
2011-08-29 15:39:26,726 - Starting Apache Velocity v1.5 (compiled: 2007-02-22 08:52:29)
2011-08-29 15:39:26,726 - Starting Apache Velocity v1.5 (compiled: 2007-02-22 08:52:29)
2011-08-29 15:39:26,726 - Starting Apache Velocity v1.5 (compiled: 2007-02-22 08:52:29)
2011-08-29 15:39:26,726 - Default Properties File: org/apache/velocity/runtime/defaults/velocity.properties
2011-08-29 15:39:26,726 - Default Properties File: org/apache/velocity/runtime/defaults/velocity.properties
2011-08-29 15:39:26,726 - Default Properties File: org/apache/velocity/runtime/defaults/velocity.properties
2011-08-29 15:39:26,726 - Trying to use logger class org.apache.velocity.runtime.log.AvalonLogChute
2011-08-29 15:39:26,726 - Trying to use logger class org.apache.velocity.runtime.log.AvalonLogChute
2011-08-29 15:39:26,726 - Trying to use logger class org.apache.velocity.runtime.log.AvalonLogChute
2011-08-29 15:39:26,726 - Couldn't find class org.apache.velocity.runtime.log.AvalonLogChute or necessary supporting classes in classpath.
java.lang.NoClassDefFoundError: org/apache/log/format/Formatter
	at java.lang.Class.forName0(Native Method)
	at java.lang.Class.forName(Class.java:247)
	at org.apache.velocity.util.ClassUtils.getClass(ClassUtils.java:63)
	at org.apache.velocity.util.ClassUtils.getNewInstance(ClassUtils.java:95)
	at org.apache.velocity.runtime.log.LogManager.createLogChute(LogManager.java:147)
	at org.apache.velocity.runtime.log.LogManager.updateLog(LogManager.java:208)
	at org.apache.velocity.runtime.RuntimeInstance.initializeLog(RuntimeInstance.java:728)
	at org.apache.velocity.runtime.RuntimeInstance.init(RuntimeInstance.java:240)
	at org.apache.velocity.app.VelocityEngine.init(VelocityEngine.java:116)
	at com.tddinaction.j2ee.web.view.velocity.VelocityTestCase.renderTemplate(VelocityTestCase.java:58)
	at com.tddinaction.j2ee.web.view.velocity.VelocityTestCase.render(VelocityTestCase.java:52)
	at com.tddinaction.j2ee.web.view.velocity.TestLoginTemplate.errorsAreRenderedForTheUser(TestLoginTemplate.java:31)
	at sun.reflect.NativeMethodAccessorImpl.invoke0(Native Method)
	at sun.reflect.NativeMethodAccessorImpl.invoke(NativeMethodAccessorImpl.java:39)
	at sun.reflect.DelegatingMethodAccessorImpl.invoke(DelegatingMethodAccessorImpl.java:25)
	at java.lang.reflect.Method.invoke(Method.java:597)
	at org.junit.internal.runners.TestMethodRunner.executeMethodBody(TestMethodRunner.java:99)
	at org.junit.internal.runners.TestMethodRunner.runUnprotected(TestMethodRunner.java:81)
	at org.junit.internal.runners.BeforeAndAfterRunner.runProtected(BeforeAndAfterRunner.java:34)
	at org.junit.internal.runners.TestMethodRunner.runMethod(TestMethodRunner.java:75)
	at org.junit.internal.runners.TestMethodRunner.run(TestMethodRunner.java:45)
	at org.junit.internal.runners.TestClassMethodsRunner.invokeTestMethod(TestClassMethodsRunner.java:66)
	at org.junit.internal.runners.TestClassMethodsRunner.run(TestClassMethodsRunner.java:35)
	at org.junit.internal.runners.TestClassRunner$1.runUnprotected(TestClassRunner.java:42)
	at org.junit.internal.runners.BeforeAndAfterRunner.runProtected(BeforeAndAfterRunner.java:34)
	at org.junit.internal.runners.TestClassRunner.run(TestClassRunner.java:52)
	at org.apache.maven.surefire.junit4.JUnit4TestSet.execute(JUnit4TestSet.java:62)
	at org.apache.maven.surefire.suite.AbstractDirectoryTestSuite.executeTestSet(AbstractDirectoryTestSuite.java:138)
	at org.apache.maven.surefire.suite.AbstractDirectoryTestSuite.execute(AbstractDirectoryTestSuite.java:125)
	at org.apache.maven.surefire.Surefire.run(Surefire.java:132)
	at sun.reflect.NativeMethodAccessorImpl.invoke0(Native Method)
	at sun.reflect.NativeMethodAccessorImpl.invoke(NativeMethodAccessorImpl.java:39)
	at sun.reflect.DelegatingMethodAccessorImpl.invoke(DelegatingMethodAccessorImpl.java:25)
	at java.lang.reflect.Method.invoke(Method.java:597)
	at org.apache.maven.surefire.booter.SurefireBooter.runSuitesInProcess(SurefireBooter.java:290)
	at org.apache.maven.surefire.booter.SurefireBooter.main(SurefireBooter.java:818)
Caused by: java.lang.ClassNotFoundException: org.apache.log.format.Formatter
	at java.net.URLClassLoader$1.run(URLClassLoader.java:202)
	at java.security.AccessController.doPrivileged(Native Method)
	at java.net.URLClassLoader.findClass(URLClassLoader.java:190)
	at java.lang.ClassLoader.loadClass(ClassLoader.java:306)
	at sun.misc.Launcher$AppClassLoader.loadClass(Launcher.java:301)
	at java.lang.ClassLoader.loadClass(ClassLoader.java:247)
	... 36 more
2011-08-29 15:39:26,726 - Couldn't find class org.apache.velocity.runtime.log.AvalonLogChute or necessary supporting classes in classpath.
java.lang.NoClassDefFoundError: org/apache/log/format/Formatter
	at java.lang.Class.forName0(Native Method)
	at java.lang.Class.forName(Class.java:247)
	at org.apache.velocity.util.ClassUtils.getClass(ClassUtils.java:63)
	at org.apache.velocity.util.ClassUtils.getNewInstance(ClassUtils.java:95)
	at org.apache.velocity.runtime.log.LogManager.createLogChute(LogManager.java:147)
	at org.apache.velocity.runtime.log.LogManager.updateLog(LogManager.java:208)
	at org.apache.velocity.runtime.RuntimeInstance.initializeLog(RuntimeInstance.java:728)
	at org.apache.velocity.runtime.RuntimeInstance.init(RuntimeInstance.java:240)
	at org.apache.velocity.app.VelocityEngine.init(VelocityEngine.java:116)
	at com.tddinaction.j2ee.web.view.velocity.VelocityTestCase.renderTemplate(VelocityTestCase.java:58)
	at com.tddinaction.j2ee.web.view.velocity.VelocityTestCase.render(VelocityTestCase.java:52)
	at com.tddinaction.j2ee.web.view.velocity.TestLoginTemplate.errorsAreRenderedForTheUser(TestLoginTemplate.java:31)
	at sun.reflect.NativeMethodAccessorImpl.invoke0(Native Method)
	at sun.reflect.NativeMethodAccessorImpl.invoke(NativeMethodAccessorImpl.java:39)
	at sun.reflect.DelegatingMethodAccessorImpl.invoke(DelegatingMethodAccessorImpl.java:25)
	at java.lang.reflect.Method.invoke(Method.java:597)
	at org.junit.internal.runners.TestMethodRunner.executeMethodBody(TestMethodRunner.java:99)
	at org.junit.internal.runners.TestMethodRunner.runUnprotected(TestMethodRunner.java:81)
	at org.junit.internal.runners.BeforeAndAfterRunner.runProtected(BeforeAndAfterRunner.java:34)
	at org.junit.internal.runners.TestMethodRunner.runMethod(TestMethodRunner.java:75)
	at org.junit.internal.runners.TestMethodRunner.run(TestMethodRunner.java:45)
	at org.junit.internal.runners.TestClassMethodsRunner.invokeTestMethod(TestClassMethodsRunner.java:66)
	at org.junit.internal.runners.TestClassMethodsRunner.run(TestClassMethodsRunner.java:35)
	at org.junit.internal.runners.TestClassRunner$1.runUnprotected(TestClassRunner.java:42)
	at org.junit.internal.runners.BeforeAndAfterRunner.runProtected(BeforeAndAfterRunner.java:34)
	at org.junit.internal.runners.TestClassRunner.run(TestClassRunner.java:52)
	at org.apache.maven.surefire.junit4.JUnit4TestSet.execute(JUnit4TestSet.java:62)
	at org.apache.maven.surefire.suite.AbstractDirectoryTestSuite.executeTestSet(AbstractDirectoryTestSuite.java:138)
	at org.apache.maven.surefire.suite.AbstractDirectoryTestSuite.execute(AbstractDirectoryTestSuite.java:125)
	at org.apache.maven.surefire.Surefire.run(Surefire.java:132)
	at sun.reflect.NativeMethodAccessorImpl.invoke0(Native Method)
	at sun.reflect.NativeMethodAccessorImpl.invoke(NativeMethodAccessorImpl.java:39)
	at sun.reflect.DelegatingMethodAccessorImpl.invoke(DelegatingMethodAccessorImpl.java:25)
	at java.lang.reflect.Method.invoke(Method.java:597)
	at org.apache.maven.surefire.booter.SurefireBooter.runSuitesInProcess(SurefireBooter.java:290)
	at org.apache.maven.surefire.booter.SurefireBooter.main(SurefireBooter.java:818)
Caused by: java.lang.ClassNotFoundException: org.apache.log.format.Formatter
	at java.net.URLClassLoader$1.run(URLClassLoader.java:202)
	at java.security.AccessController.doPrivileged(Native Method)
	at java.net.URLClassLoader.findClass(URLClassLoader.java:190)
	at java.lang.ClassLoader.loadClass(ClassLoader.java:306)
	at sun.misc.Launcher$AppClassLoader.loadClass(Launcher.java:301)
	at java.lang.ClassLoader.loadClass(ClassLoader.java:247)
	... 36 more
2011-08-29 15:39:26,726 - Couldn't find class org.apache.velocity.runtime.log.AvalonLogChute or necessary supporting classes in classpath.
java.lang.NoClassDefFoundError: org/apache/log/format/Formatter
	at java.lang.Class.forName0(Native Method)
	at java.lang.Class.forName(Class.java:247)
	at org.apache.velocity.util.ClassUtils.getClass(ClassUtils.java:63)
	at org.apache.velocity.util.ClassUtils.getNewInstance(ClassUtils.java:95)
	at org.apache.velocity.runtime.log.LogManager.createLogChute(LogManager.java:147)
	at org.apache.velocity.runtime.log.LogManager.updateLog(LogManager.java:208)
	at org.apache.velocity.runtime.RuntimeInstance.initializeLog(RuntimeInstance.java:728)
	at org.apache.velocity.runtime.RuntimeInstance.init(RuntimeInstance.java:240)
	at org.apache.velocity.app.VelocityEngine.init(VelocityEngine.java:116)
	at com.tddinaction.j2ee.web.view.velocity.VelocityTestCase.renderTemplate(VelocityTestCase.java:58)
	at com.tddinaction.j2ee.web.view.velocity.VelocityTestCase.render(VelocityTestCase.java:52)
	at com.tddinaction.j2ee.web.view.velocity.TestLoginTemplate.errorsAreRenderedForTheUser(TestLoginTemplate.java:31)
	at sun.reflect.NativeMethodAccessorImpl.invoke0(Native Method)
	at sun.reflect.NativeMethodAccessorImpl.invoke(NativeMethodAccessorImpl.java:39)
	at sun.reflect.DelegatingMethodAccessorImpl.invoke(DelegatingMethodAccessorImpl.java:25)
	at java.lang.reflect.Method.invoke(Method.java:597)
	at org.junit.internal.runners.TestMethodRunner.executeMethodBody(TestMethodRunner.java:99)
	at org.junit.internal.runners.TestMethodRunner.runUnprotected(TestMethodRunner.java:81)
	at org.junit.internal.runners.BeforeAndAfterRunner.runProtected(BeforeAndAfterRunner.java:34)
	at org.junit.internal.runners.TestMethodRunner.runMethod(TestMethodRunner.java:75)
	at org.junit.internal.runners.TestMethodRunner.run(TestMethodRunner.java:45)
	at org.junit.internal.runners.TestClassMethodsRunner.invokeTestMethod(TestClassMethodsRunner.java:66)
	at org.junit.internal.runners.TestClassMethodsRunner.run(TestClassMethodsRunner.java:35)
	at org.junit.internal.runners.TestClassRunner$1.runUnprotected(TestClassRunner.java:42)
	at org.junit.internal.runners.BeforeAndAfterRunner.runProtected(BeforeAndAfterRunner.java:34)
	at org.junit.internal.runners.TestClassRunner.run(TestClassRunner.java:52)
	at org.apache.maven.surefire.junit4.JUnit4TestSet.execute(JUnit4TestSet.java:62)
	at org.apache.maven.surefire.suite.AbstractDirectoryTestSuite.executeTestSet(AbstractDirectoryTestSuite.java:138)
	at org.apache.maven.surefire.suite.AbstractDirectoryTestSuite.execute(AbstractDirectoryTestSuite.java:125)
	at org.apache.maven.surefire.Surefire.run(Surefire.java:132)
	at sun.reflect.NativeMethodAccessorImpl.invoke0(Native Method)
	at sun.reflect.NativeMethodAccessorImpl.invoke(NativeMethodAccessorImpl.java:39)
	at sun.reflect.DelegatingMethodAccessorImpl.invoke(DelegatingMethodAccessorImpl.java:25)
	at java.lang.reflect.Method.invoke(Method.java:597)
	at org.apache.maven.surefire.booter.SurefireBooter.runSuitesInProcess(SurefireBooter.java:290)
	at org.apache.maven.surefire.booter.SurefireBooter.main(SurefireBooter.java:818)
Caused by: java.lang.ClassNotFoundException: org.apache.log.format.Formatter
	at java.net.URLClassLoader$1.run(URLClassLoader.java:202)
	at java.security.AccessController.doPrivileged(Native Method)
	at java.net.URLClassLoader.findClass(URLClassLoader.java:190)
	at java.lang.ClassLoader.loadClass(ClassLoader.java:306)
	at sun.misc.Launcher$AppClassLoader.loadClass(Launcher.java:301)
	at java.lang.ClassLoader.loadClass(ClassLoader.java:247)
	... 36 more
2011-08-29 15:39:26,727 - Trying to use logger class org.apache.velocity.runtime.log.Log4JLogChute
2011-08-29 15:39:26,727 - Trying to use logger class org.apache.velocity.runtime.log.Log4JLogChute
2011-08-29 15:39:26,727 - Trying to use logger class org.apache.velocity.runtime.log.Log4JLogChute
2011-08-29 15:39:26,727 - Using logger class org.apache.velocity.runtime.log.Log4JLogChute
2011-08-29 15:39:26,727 - Using logger class org.apache.velocity.runtime.log.Log4JLogChute
2011-08-29 15:39:26,727 - Using logger class org.apache.velocity.runtime.log.Log4JLogChute
2011-08-29 15:39:26,727 - Default ResourceManager initializing. (class org.apache.velocity.runtime.resource.ResourceManagerImpl)
2011-08-29 15:39:26,727 - Default ResourceManager initializing. (class org.apache.velocity.runtime.resource.ResourceManagerImpl)
2011-08-29 15:39:26,727 - Default ResourceManager initializing. (class org.apache.velocity.runtime.resource.ResourceManagerImpl)
2011-08-29 15:39:26,727 - ResourceLoader instantiated: org.apache.velocity.runtime.resource.loader.FileResourceLoader
2011-08-29 15:39:26,727 - ResourceLoader instantiated: org.apache.velocity.runtime.resource.loader.FileResourceLoader
2011-08-29 15:39:26,727 - ResourceLoader instantiated: org.apache.velocity.runtime.resource.loader.FileResourceLoader
2011-08-29 15:39:26,727 - Do unicode file recognition:  false
2011-08-29 15:39:26,727 - Do unicode file recognition:  false
2011-08-29 15:39:26,727 - Do unicode file recognition:  false
2011-08-29 15:39:26,727 - FileResourceLoader : adding path '.'
2011-08-29 15:39:26,727 - FileResourceLoader : adding path '.'
2011-08-29 15:39:26,727 - FileResourceLoader : adding path '.'
2011-08-29 15:39:26,727 - ResourceCache: initialized (class org.apache.velocity.runtime.resource.ResourceCacheImpl)
2011-08-29 15:39:26,727 - ResourceCache: initialized (class org.apache.velocity.runtime.resource.ResourceCacheImpl)
2011-08-29 15:39:26,727 - ResourceCache: initialized (class org.apache.velocity.runtime.resource.ResourceCacheImpl)
2011-08-29 15:39:26,728 - Loaded System Directive: org.apache.velocity.runtime.directive.Literal
2011-08-29 15:39:26,728 - Loaded System Directive: org.apache.velocity.runtime.directive.Literal
2011-08-29 15:39:26,728 - Loaded System Directive: org.apache.velocity.runtime.directive.Literal
2011-08-29 15:39:26,728 - Loaded System Directive: org.apache.velocity.runtime.directive.Macro
2011-08-29 15:39:26,728 - Loaded System Directive: org.apache.velocity.runtime.directive.Macro
2011-08-29 15:39:26,728 - Loaded System Directive: org.apache.velocity.runtime.directive.Macro
2011-08-29 15:39:26,728 - Loaded System Directive: org.apache.velocity.runtime.directive.Parse
2011-08-29 15:39:26,728 - Loaded System Directive: org.apache.velocity.runtime.directive.Parse
2011-08-29 15:39:26,728 - Loaded System Directive: org.apache.velocity.runtime.directive.Parse
2011-08-29 15:39:26,728 - Loaded System Directive: org.apache.velocity.runtime.directive.Include
2011-08-29 15:39:26,728 - Loaded System Directive: org.apache.velocity.runtime.directive.Include
2011-08-29 15:39:26,728 - Loaded System Directive: org.apache.velocity.runtime.directive.Include
2011-08-29 15:39:26,728 - Loaded System Directive: org.apache.velocity.runtime.directive.Foreach
2011-08-29 15:39:26,728 - Loaded System Directive: org.apache.velocity.runtime.directive.Foreach
2011-08-29 15:39:26,728 - Loaded System Directive: org.apache.velocity.runtime.directive.Foreach
2011-08-29 15:39:26,731 - Created '20' parsers.
2011-08-29 15:39:26,731 - Created '20' parsers.
2011-08-29 15:39:26,731 - Created '20' parsers.
2011-08-29 15:39:26,731 - Velocimacro : "velocimacro.library" is not set.  Trying default library: VM_global_library.vm
2011-08-29 15:39:26,731 - Velocimacro : "velocimacro.library" is not set.  Trying default library: VM_global_library.vm
2011-08-29 15:39:26,731 - Velocimacro : "velocimacro.library" is not set.  Trying default library: VM_global_library.vm
2011-08-29 15:39:26,731 - Velocimacro : Default library not found.
2011-08-29 15:39:26,731 - Velocimacro : Default library not found.
2011-08-29 15:39:26,731 - Velocimacro : Default library not found.
2011-08-29 15:39:26,731 - Velocimacro : allowInline = true : VMs can be defined inline in templates
2011-08-29 15:39:26,731 - Velocimacro : allowInline = true : VMs can be defined inline in templates
2011-08-29 15:39:26,731 - Velocimacro : allowInline = true : VMs can be defined inline in templates
2011-08-29 15:39:26,731 - Velocimacro : allowInlineToOverride = false : VMs defined inline may NOT replace previous VM definitions
2011-08-29 15:39:26,731 - Velocimacro : allowInlineToOverride = false : VMs defined inline may NOT replace previous VM definitions
2011-08-29 15:39:26,731 - Velocimacro : allowInlineToOverride = false : VMs defined inline may NOT replace previous VM definitions
2011-08-29 15:39:26,731 - Velocimacro : allowInlineLocal = false : VMs defined inline will be global in scope if allowed.
2011-08-29 15:39:26,731 - Velocimacro : allowInlineLocal = false : VMs defined inline will be global in scope if allowed.
2011-08-29 15:39:26,731 - Velocimacro : allowInlineLocal = false : VMs defined inline will be global in scope if allowed.
2011-08-29 15:39:26,731 - Velocimacro : autoload off : VM system will not automatically reload global library macros
2011-08-29 15:39:26,731 - Velocimacro : autoload off : VM system will not automatically reload global library macros
2011-08-29 15:39:26,731 - Velocimacro : autoload off : VM system will not automatically reload global library macros
